%YAML 1.1
%TAG !u! tag:unity3d.com,2011:
--- !u!114 &11400000
MonoBehaviour:
  m_ObjectHideFlags: 0
  m_PrefabParentObject: {fileID: 0}
  m_PrefabInternal: {fileID: 0}
  m_GameObject: {fileID: 0}
  m_Enabled: 1
  m_EditorHideFlags: 0
  m_Script: {fileID: -1223223985, guid: aa81bbec85a3f423193272a7c6154986, type: 3}
  m_Name: 02track
  m_EditorClassIdentifier: 
  mEventID: 02track
  mEventList:
  - mStartSample: 105840
    mEndSample: 105840
  - mStartSample: 211680
    mEndSample: 211680
  - mStartSample: 264600
    mEndSample: 264600
  - mStartSample: 317520
    mEndSample: 317520
  - mStartSample: 423360
    mEndSample: 423360
  - mStartSample: 476280
    mEndSample: 476280
  - mStartSample: 529200
    mEndSample: 529200
  - mStartSample: 635040
    mEndSample: 635040
  - mStartSample: 687960
    mEndSample: 687960
  - mStartSample: 740880
    mEndSample: 740880
  - mStartSample: 846720
    mEndSample: 846720
  - mStartSample: 899640
    mEndSample: 899640
  - mStartSample: 952560
    mEndSample: 952560
  - mStartSample: 1005480
    mEndSample: 1005480
  - mStartSample: 1031940
    mEndSample: 1031940
  - mStartSample: 1058400
    mEndSample: 1058400
  - mStartSample: 1111320
    mEndSample: 1111320
  - mStartSample: 1164240
    mEndSample: 1164240
  - mStartSample: 1190700
    mEndSample: 1190700
  - mStartSample: 1217160
    mEndSample: 1217160
  - mStartSample: 1243620
    mEndSample: 1243620
  - mStartSample: 1270080
    mEndSample: 1270080
  - mStartSample: 1323000
    mEndSample: 1323000
  - mStartSample: 1375920
    mEndSample: 1375920
  - mStartSample: 1428840
    mEndSample: 1428840
  - mStartSample: 1455300
    mEndSample: 1455300
  - mStartSample: 1481760
    mEndSample: 1481760
  - mStartSample: 1534680
    mEndSample: 1534680
  - mStartSample: 1587600
    mEndSample: 1587600
  - mStartSample: 1614060
    mEndSample: 1614060
  - mStartSample: 1640520
    mEndSample: 1640520
  - mStartSample: 1666980
    mEndSample: 1666980
  - mStartSample: 1693440
    mEndSample: 1693440
  - mStartSample: 1746360
    mEndSample: 1746360
  - mStartSample: 1799280
    mEndSample: 1799280
  - mStartSample: 1852200
    mEndSample: 1852200
  - mStartSample: 1878660
    mEndSample: 1878660
  - mStartSample: 1905120
    mEndSample: 1905120
  - mStartSample: 1958040
    mEndSample: 1958040
  - mStartSample: 2010960
    mEndSample: 2010960
  - mStartSample: 2037420
    mEndSample: 2037420
  - mStartSample: 2063880
    mEndSample: 2063880
  - mStartSample: 2116800
    mEndSample: 2116800
  - mStartSample: 2169720
    mEndSample: 2169720
  - mStartSample: 2222640
    mEndSample: 2222640
  - mStartSample: 2275560
    mEndSample: 2275560
  - mStartSample: 2302020
    mEndSample: 2302020
  - mStartSample: 2328480
    mEndSample: 2328480
  - mStartSample: 2381400
    mEndSample: 2381400
  - mStartSample: 2434320
    mEndSample: 2434320
  - mStartSample: 2487240
    mEndSample: 2487240
  - mStartSample: 2540160
    mEndSample: 2540160
  - mStartSample: 2579850
    mEndSample: 2579850
  - mStartSample: 2602710
    mEndSample: 2602710
  - mStartSample: 2646000
    mEndSample: 2646000
  - mStartSample: 2685690
    mEndSample: 2685690
  - mStartSample: 2706660
    mEndSample: 2706660
  - mStartSample: 2751840
    mEndSample: 2751840
  - mStartSample: 2804760
    mEndSample: 2804760
  - mStartSample: 2844450
    mEndSample: 2844450
  - mStartSample: 2866050
    mEndSample: 2866050
  - mStartSample: 2910600
    mEndSample: 2910600
  - mStartSample: 2963520
    mEndSample: 2963520
  - mStartSample: 2989980
    mEndSample: 2989980
  - mStartSample: 3016440
    mEndSample: 3016440
  - mStartSample: 3042900
    mEndSample: 3042900
  - mStartSample: 3069360
    mEndSample: 3069360
  - mStartSample: 3109050
    mEndSample: 3109050
  - mStartSample: 3130380
    mEndSample: 3130380
  - mStartSample: 3175200
    mEndSample: 3175200
  - mStartSample: 3214890
    mEndSample: 3214890
  - mStartSample: 3236310
    mEndSample: 3236310
  - mStartSample: 3254580
    mEndSample: 3254580
  - mStartSample: 3281040
    mEndSample: 3281040
  - mStartSample: 3307500
    mEndSample: 3307500
  - mStartSample: 3333960
    mEndSample: 3333960
  - mStartSample: 3360420
    mEndSample: 3360420
  - mStartSample: 3386880
    mEndSample: 3386880
  - mStartSample: 3439800
    mEndSample: 3439800
  - mStartSample: 3492720
    mEndSample: 3492720
  - mStartSample: 3545640
    mEndSample: 3545640
  - mStartSample: 3572100
    mEndSample: 3572100
  - mStartSample: 3598560
    mEndSample: 3598560
  - mStartSample: 3625020
    mEndSample: 3625020
  - mStartSample: 3651480
    mEndSample: 3651480
  - mStartSample: 3677940
    mEndSample: 3677940
  - mStartSample: 3704400
    mEndSample: 3704400
  - mStartSample: 3730860
    mEndSample: 3730860
  - mStartSample: 3757320
    mEndSample: 3757320
  - mStartSample: 3783780
    mEndSample: 3783780
  - mStartSample: 3810240
    mEndSample: 3810240
  - mStartSample: 3836700
    mEndSample: 3836700
  - mStartSample: 3863160
    mEndSample: 3863160
  - mStartSample: 3889620
    mEndSample: 3889620
  - mStartSample: 3916080
    mEndSample: 3916080
  - mStartSample: 3969000
    mEndSample: 3969000
  - mStartSample: 3995460
    mEndSample: 3995460
  - mStartSample: 4021920
    mEndSample: 4021920
  - mStartSample: 4048380
    mEndSample: 4048380
  - mStartSample: 4074840
    mEndSample: 4074840
  - mStartSample: 4101300
    mEndSample: 4101300
  - mStartSample: 4127760
    mEndSample: 4127760
  - mStartSample: 4180680
    mEndSample: 4180680
  - mStartSample: 4207140
    mEndSample: 4207140
  - mStartSample: 4233600
    mEndSample: 4233600
  - mStartSample: 4260060
    mEndSample: 4260060
  - mStartSample: 4286520
    mEndSample: 4286520
  - mStartSample: 4312980
    mEndSample: 4312980
  - mStartSample: 4339440
    mEndSample: 4339440
  - mStartSample: 4339910
    mEndSample: 4339910
  - mStartSample: 4365900
    mEndSample: 4365900
  - mStartSample: 4392360
    mEndSample: 4392360
  - mStartSample: 4418820
    mEndSample: 4418820
  - mStartSample: 4445280
    mEndSample: 4445280
  - mStartSample: 4470048
    mEndSample: 4470048
  - mStartSample: 4498200
    mEndSample: 4498200
  - mStartSample: 4524660
    mEndSample: 4524660
  - mStartSample: 4551120
    mEndSample: 4551120
  - mStartSample: 4577932
    mEndSample: 4577932
  - mStartSample: 4602393
    mEndSample: 4602393
  _SerializedPayloadTypes:
  - SonicBloom.Koreo.TextPayload
  _AssetPayloads: []
  _AssetPayloadIdxs: 
  _ColorPayloads: []
  _ColorPayloadIdxs: 
  _CurvePayloads: []
  _CurvePayloadIdxs: 
  _FloatPayloads: []
  _FloatPayloadIdxs: 
  _GradientPayloads: []
  _GradientPayloadIdxs: 
  _IntPayloads: []
  _IntPayloadIdxs: 
  _SpectrumPayloads: []
  _SpectrumPayloadIdxs: 
  _TextPayloads:
  - mTextVal: 1
  - mTextVal: 1
  - mTextVal: 1
  - mTextVal: 1
  - mTextVal: 1
  - mTextVal: 1
  - mTextVal: 1
  - mTextVal: 1
  - mTextVal: 1
  - mTextVal: 1
  - mTextVal: 1
  - mTextVal: 1
  - mTextVal: 1
  - mTextVal: 1
  - mTextVal: 1
  - mTextVal: 1
  - mTextVal: 1
  - mTextVal: 1
  - mTextVal: 1
  - mTextVal: 1
  - mTextVal: 1
  - mTextVal: 1
  - mTextVal: 1
  - mTextVal: 1
  - mTextVal: 1
  - mTextVal: 1
  - mTextVal: 1
  - mTextVal: 1
  - mTextVal: 1
  - mTextVal: 1
  - mTextVal: 1
  - mTextVal: 1
  - mTextVal: 1
  - mTextVal: 1
  - mTextVal: 1
  - mTextVal: 1
  - mTextVal: 1
  - mTextVal: 1
  - mTextVal: 1
  - mTextVal: 1
  - mTextVal: 1
  - mTextVal: 1
  - mTextVal: 1
  - mTextVal: 1
  - mTextVal: 1
  - mTextVal: 1
  - mTextVal: 1
  - mTextVal: 1
  - mTextVal: 2
  - mTextVal: 2
  - mTextVal: 2
  - mTextVal: 2
  - mTextVal: 2
  - mTextVal: 2
  - mTextVal: 2
  - mTextVal: 2
  - mTextVal: 2
  - mTextVal: 2
  - mTextVal: 2
  - mTextVal: 2
  - mTextVal: 2
  - mTextVal: 2
  - mTextVal: 2
  - mTextVal: 2
  - mTextVal: 2
  - mTextVal: 2
  - mTextVal: 2
  - mTextVal: 2
  - mTextVal: 2
  - mTextVal: 2
  - mTextVal: 2
  - mTextVal: 2
  - mTextVal: 2
  - mTextVal: 2
  - mTextVal: 2
  - mTextVal: 2
  - mTextVal: 2
  - mTextVal: 2
  - mTextVal: 2
  - mTextVal: 2
  - mTextVal: 2
  - mTextVal: 2
  - mTextVal: 2
  - mTextVal: 2
  - mTextVal: 2
  - mTextVal: 2
  - mTextVal: 2
  - mTextVal: 2
  - mTextVal: 2
  - mTextVal: 2
  - mTextVal: 2
  - mTextVal: 2
  - mTextVal: 2
  - mTextVal: 2
  - mTextVal: 2
  - mTextVal: 2
  - mTextVal: 2
  - mTextVal: 2
  - mTextVal: 2
  - mTextVal: 2
  - mTextVal: 2
  - mTextVal: 2
  - mTextVal: 2
  - mTextVal: 2
  - mTextVal: 2
  - mTextVal: 2
  - mTextVal: 2
  - mTextVal: 2
  - mTextVal: 2
  - mTextVal: 2
  - mTextVal: 2
  - mTextVal: 2
  - mTextVal: 2
  _TextPayloadIdxs: 000000000100000003000000040000000600000007000000090000000a0000000b0000000c0000000d0000000e0000000f000000100000001100000012000000130000001400000015000000160000001700000018000000190000001a0000001b0000001c0000001d0000001e0000001f000000200000002100000022000000230000002400000025000000260000002700000028000000290000002a0000002b0000002c0000002d0000002e0000002f000000300000003100000032000000330000003400000035000000360000003700000038000000390000003a0000003b0000003c0000003d0000003e0000003f000000400000004100000042000000430000004400000045000000460000004700000048000000490000004a0000004b0000004c0000004d0000004e0000004f000000500000005100000052000000530000005400000055000000560000005700000058000000590000005a0000005b0000005c0000005d0000005e0000005f000000600000006100000062000000630000006400000065000000660000006700000068000000690000006a0000006b0000006c0000006e0000006f0000007000000071000000730000007400000075000000
